
8.911090806835928 9.625348369684755 10.07670812775157 10.30355095253308 9.994825931958808 9.757726493315918 9.799422375530252 10.127954876020288 10.033458430966737 10.004868657338083 10.063600468138837 10.028009479507574 9.982196217917569 9.992862442998378 10.533338752777379 10.830170937665873 10.209998253234653 9.84985239915585 10.015296680704923 10.347927575246121 10.418870209639454 10.188582848413432 9.92665516002322 9.87295008761906 10.049469465989315 10.26818314123646 10.349755885981759 10.283212584575422 10.210485446908166 10.182998879825305 10.240779544245063 10.295684977231511 10.272586407236526 10.216771672151577 10.127358997712813 10.118067499132044 10.095352659749288 10.132559509177888 10.160971708913275 10.163819294745947 10.177959069974595 10.209592863478361 10.214845243785742 10.18344466111618 10.14423568230377 10.171890000949 10.209782296455474 10.182551580495584 10.168935137038149 10.175844604529264 10.188361195865696 10.216023772663844 10.176541478319683 10.1808933296277 10.216653311276277 10.205407627754651 10.199111406104018 10.158697121051775 10.178778349415191 10.190828306245907 10.159795805313415 10.191771565414992 10.462986694829153 10.727265914891317 10.728043956100452 10.9489072768309 11.385938813340463 11.273589769631736 10.218233334606758 9.31430466338227 8.85995368480417 8.91606675266009 8.920051241329794 9.084666956254075 9.319293725098913 9.239578562451793 8.869761895700796 8.978955991416862 11.421267805124227 16.154432773767933 15.837077825710688 12.093105880577875 8.177927726025086 7.551204853046037 7.701255834645676 7.8430802868662814 8.349772704908368 8.67106203959649 8.96615509880681 9.860144148386125 15.091251774685661 19.81004303821123 11.248033139696858 7.614124233810504 7.496745611475928 8.203157086990817 8.501093177061296 8.59392045285503 8.820140367286273 8.811542431906963 9.794652951505208 14.584993860075413 18.29758051319132 11.714022483925248 7.334980635146132 6.956110555479879 7.368111707173998 8.035059874999328 8.419459065438222 8.924889691523328 9.933809566816027 15.920681804836732 17.885882286212496 10.995900864205247 7.356451470298929 6.699487512830389 7.338273494053976 7.953852112513431 8.391856069488776 8.69263421802836 10.730691647097947 14.91761023806574 19.694833703521716 12.539307094577012 8.004785060343886 6.574425026008543 7.014599969487469 7.96830048134702 8.473550372081535 8.991646174518566 10.172690269507665 14.038560352037972 16.922576523431832 12.816778296756292 8.038810051308317 6.923423163404108 7.071545774691322 7.545940333393626 8.111444521573361 9.070419324037186 11.39193638498782 16.464155623965542 16.078566297697478 10.17901520108243 7.661176567852264 7.040583540400289 7.273358566888429 7.8166366001789935 8.163597100969225 8.87094668388664 10.938565796286435 16.697155848459172 17.00532358626079 10.2062542309726 7.411492275036109 6.718911812186659 7.061271628172643 7.734095836186691 8.53855856815862 11.422854860286884 15.49773808864564 17.817879704336402 11.901311055257079 7.781554189351035 6.362651159143429 6.344086736752383 7.091856850906538 8.450670601683873 11.77767736364141 17.013693287388946 16.642876901620706 11.798892625475494 7.397380942739918 5.92724333839343 6.167625490171377 7.356103514166506 9.550605507074293 13.548294714570227 17.2029795350344 13.996204406658569 8.363755606001055 6.192048837907786 6.143520148354071 7.197731232819294 8.53112435161021 11.771007183220213 16.71732799151172 15.149819431550785 10.144146935105763 7.003655705223143 6.241878879065018 6.504411814059362 7.541168140211788 12.435849794341433 19.13415547552906 15.681799593827762 9.80292680592905 8.04678966884368 7.431496641591408 7.540516071821247 7.8111512507635315 8.172903313497434 9.410352046920066 13.341453622661401 17.507023736973487 13.8093070227734 8.089734351626314 6.381617981764934 6.294411605714882 7.227305441117664 7.951377931575268 10.292079613518158 15.995760355957898 18.222178534065122 10.174291367657228 7.539237317840366 7.108129505426724 7.504962550914228 7.940086604109663 8.404637064997866 10.000419226441952 14.539569925824136 17.316953891774492 12.164679656790957 7.505749342561299 6.239731249279284 6.794570988353237 7.833933002433777 8.697147857739052 9.759365572086585 14.23308750866434 18.283378281562705 15.403955996806875 8.51679545066894 7.031089407888279 7.014878401079637 7.744627536316354 8.45977825983438 10.127003412664438 13.56579099886198 14.865376926009773 11.831568913259929 8.278121184437824 6.725021203443717 6.195922975419722 6.4132726371150595 8.03314780288816 14.560754237498955 19.700721781719142 13.100053021272709 7.85070346668851 7.487542041794271 7.83612175950172 8.29085297801302 8.898008796740706 11.275742980431142 

14.297616741346156 13.431074726564024 10.725582336408506 7.8762290843158596 6.64071978333092 6.567546538967494 7.273643089199696 9.978712694092861 17.2859591091793 19.308705571317923 11.309594893076754 7.144641773167814 6.656779523391688 7.202143074680206 8.205445170393617 8.61631979425526 8.466898472934263 9.441550894889104 15.913588833770731 18.914356152202057 10.701575218546246 7.595112242782772 6.479491819541248 7.320734587951305 8.479342322127366 8.663038325681502 8.669641815495284 10.422167818225248 15.591170409131012 17.72773140978563 11.310059679381531 6.9600965203794445 6.334202690020404 7.363298087265232 8.033235178409793 8.593688298784182 9.132332142253988 11.336732990265675 18.921204054991453 16.927488176248456 8.530466120552072 6.872693593950491 6.990211181943223 7.891267716321269 8.385128899290388 8.462184937329969 9.07918596223342 11.652932357116438 16.62107676629567 16.838902726114053 11.192596468123122 7.155397056156283 6.648703151823987 7.430396526532343 8.05573219310276 8.528980889569892 9.625731601405926 14.26989748965403 17.842958128773272 12.635561915750237 7.8379755535985565 7.056044066864603 7.402521538926945 8.301545920661498 8.65551886930949 8.869175678814784 11.219567739282457 16.013214376506948 15.504357494535508 10.012915091417169 7.184201487088184 6.868096787247826 7.632945939052372 8.207122351945577 8.573315548954973 9.266008700423722 13.785949321016693 17.946421248943512 12.164746137260094 8.137323511791017 7.071206456779107 7.663684707336088 8.62542458194088 8.873484307468111 10.886701230027166 14.41237498590621 15.166218733548192 12.06529970241849 8.498706494812074 7.298869936493835 7.537314098589814 8.128003313619583 8.469021613350762 8.736179881860416 11.262891376905344 17.882996804423783 16.84144975741817 10.137903727101598 7.044186504279971 8.80612579756274 11.553596656588155 10.69802498816772 8.302311439842558 16.057009222330777 15.298658444298718 14.924925040052022 8.506246179135577 10.036951459097786 6.655390867567258 10.839713540884626 6.624591454918566 10.986160589000358 7.113582631932248 17.41923764370561 15.356667606946319 13.525780821312013 6.919978930490865 9.350409644633809 5.920492448687097 12.670835779288717 7.379201435830737 12.607880419866007 9.826932558821445 18.340959846896475 17.855998149693985 7.135396767098924 10.477869235363595 6.520665695749373 11.180892271627792 8.535771216403885 7.754019156529985 14.927265571640676 15.51759619354675 17.04531027992927 8.19020420290324 6.487448090509147 10.759561943581785 6.916328912171391 11.254848537434253 8.548479393375459 7.3675797197257165 17.3546233863158 16.762781533103702 11.423339081951914 8.158071497247326 5.451148781749723 11.237866788825134 9.106583077459936 8.747733122234127 9.542670939760566 15.018195242920909 15.85986856528777 10.537420168898931 8.165018914522594 7.155608702331263 7.5659030792296615 8.60257182145894 8.802166880073791 9.99002073176985 13.784436192762609 15.994129057458572 12.71774820417379 8.786518729107286 7.1075877196232105 6.7436332346058725 7.311659022822086 7.970715329030721 9.929675974865459 13.758874976719571 17.233585232357704 14.571945074421366 9.519303636486905 8.069747624380295 7.466748085032201 7.707229232758622 8.226553225896957 8.958643519036343 11.201778229828241 14.058210066138287 13.519010369010813 10.734467751714458 9.13860112142679 8.037009463610458 7.876606852976567 8.295600865119953 8.881362998077114 10.704090113877761 14.543292431094416 13.658831948067407 10.26295173942476 8.955399096278892 8.164305936113433 8.082420166452021 8.511271464555655 9.024887430857431 12.072435467631093 14.595554542474353 12.50732146424489 10.094288531130218 8.55079909488773 7.870954655253618 8.010943557085188 8.484692871433744 9.398606347194846 11.0699685957962 14.63370092070761 13.463255431958938 10.141646276457159 8.885935748472221 8.083028046915745 7.960010478333904 8.412259247779723 9.768478489359042 12.11450307244927 14.623026918520175 12.65167379651861 9.705880527870157 8.306995835413083 7.577065305257486 7.5980207576443055 8.441863111624718 11.816153793790754 14.769404691503523 12.366859301551667 9.606405155911927 8.899292272653009 8.593634587293195 8.854130667818975 9.684570657157526 11.432345203225063 12.959326866470775 11.811376124611021 9.578076012440999 8.37755306672194 7.658688277638228 7.788647915167019 8.374758133313696 9.99729272435324 14.053077355308938 15.357920518620025 11.325706907866309 8.877193555943652 8.221991418342686 7.850029001364621 8.1372583496966 8.582205491517481 9.760003460117415 13.688311548429741 14.885965873280401 11.397931470090308 9.158711073365653 8.004622077860702 7.727206273736647 8.093691556859461 8.755458328215 9.358827195988555 

12.511587646635943 15.07542479060499 13.397944939014609 9.97602334951744 7.938807102022634 7.364160880814299 7.533805698450283 8.31183730617346 9.087019799307571 12.023863905694219 14.992676027736218 13.842777812223735 10.617363193565625 8.295529128864056 7.501627427598628 7.424837761850081 7.953854510531798 8.492985243119392 10.34050337903508 15.207475249586858 14.883057535712483 10.57431038125241 8.645661746854062 8.038056928878678 8.07232776749913 8.581669420854437 9.337245756924004 11.004363148350805 14.236315129169881 13.629747596021359 10.463230967082195 8.473328876309107 7.834626381930002 7.771441670214409 8.272838538428642 8.737654341615643 9.505953077987417 13.476268112726673 15.386626027107011 12.2313570122187 9.433137201038331 8.110475204600135 7.660755311066603 7.857070858117701 8.332588874624477 10.157335428777339 13.384364192369556 15.744861551731827 12.419178412102816 9.434724311136412 8.0312343255866 7.704577821605781 7.985382792852743 8.499437650142058 9.122843866492637 11.321509382897284 15.117160751752822 14.24242052315541 10.491038540032035 8.588911102165305 7.688788081239014 7.551770882994153 8.115705602669383 8.72903197070029 10.32586285031501 14.461505171867053 15.403681604811945 12.037935693130825 9.205825901557402 8.0179651722198 7.668268727416828 8.007238927629214 8.584427649604198 9.381947295662759 12.908909262772443 15.308157667143012 13.060738330668274 9.874770922357792 8.408323578187735 7.833069600745112 7.999177890497756 8.540364186296173 9.335998790332287 12.327946766772438 14.464364295490357 13.289853601158832 10.217619947191904 8.27314839925135 7.496971281768272 7.264986531086964 7.775091591445794 9.796486392063372 14.470918101596906 15.26174924411466 10.896236336854747 9.710836150667829 9.103160904441294 8.865404986723014 8.852507551739976 8.72216161341036 8.360526260530932 8.615867313025664 12.622942161922559 15.279025112828288 14.018711120306651 9.681726322560504 8.286998668023793 7.297321183410897 7.326182028535353 8.001890912697506 8.777162951520216 13.014120795808322 17.185002481894916 12.525247939162721 9.425947583877385 8.341621041593925 7.653267415700987 7.637830851329806 8.37299425390218 8.802465474939394 11.88796963410844 16.12587717908461 12.757340057464836 9.28842841086424 8.23979573191067 7.938908489545089 8.13727569505327 8.600851114429206 9.39072005593529 12.506139849511793 14.677718651230766 11.583333479700613 9.20889717780828 8.699800195263107 8.551686384968491 8.846696450423599 9.193168292907442 10.3457405503028 13.886029233057524 13.044644504322095 9.402927153950518 7.399186641223491 6.856506721190071 9.737214924822574 7.8653694484149055 8.400638792181176 10.247678912597873 14.907370855068539 15.568059334276281 10.783296694882473 8.672564724823332 7.478299854878943 8.231872989190022 7.348136727960547 10.624846692942688 11.996891890779983 17.507626860628932 10.334763048590316 10.895735342096904 8.182043222742601 7.963775158975475 10.764992837934507 8.094548837719769 13.494113345111012 13.569608029893898 10.970707819175157 12.144087092834907 7.242849046106615 9.800753225846742 8.662485238815435 7.325203319240559 15.06485714018878 12.903006601009825 11.91956455945893 12.213685686228878 6.983111034609123 9.909683547062928 8.698464040988116 7.565640388608627 17.0192035593597 15.077541075157013 8.538345460373666 11.770355124873038 7.5101295730242414 7.746450780507433 11.979878403901504 9.142075122018037 11.641212888888084 13.199008927564291 11.152851345716414 9.120187823051364 8.271862308736013 8.295100537795122 8.525022588347548 9.287296470578609 11.005294565975356 13.181704146989114 12.73862563261094 10.172676019727737 9.044674515147626 8.476808662180293 8.602092452878606 8.950114278223587 10.275212611019791 12.181827105204446 12.356412858135776 10.431417371756776 9.285134886386865 9.226440945695911 10.111081198996244 10.91007093593568 10.722825234893387 9.981260670636516 9.29294740434707 9.086385884787505 9.181738467690229 9.429783780318331 10.242480985974389 12.224273447862863 12.50056395212207 10.276440269343027 9.039155344704676 8.955437433154264 9.429698827147298 9.8705140559898 10.396608944221308 11.225201210308619 10.797646258971755 9.916910590583193 9.62785713098041 9.916917129901213 10.22770051620212 10.364841129541013 10.226439030122675 10.098482799826835 10.132485342516347 10.179729470366281 10.225287443191924 10.196400504685618 10.151166471154813 10.100417447669551 10.167301304087799 10.261219118499106 10.278093496977792 10.232022779545245 10.168588883917803 10.10340065690678 10.168956144432073 10.150212297897163 10.231965365186445 10.209715789814576 10.209020806862965 10.099666219804734 10.136357471885626 10.124503417847604 10.207692734736723 

10.154633284783724 10.1484375 10.165780534325455 10.200328028770999 10.153653514252888 10.16301232204349 10.227231673341292 10.22849604524811 10.152063440002912 10.144444385578238 10.1361730645511 10.13657122965874 10.181909443087115 10.21844687289319 10.212992781629545 10.186110700178409 10.195239912337383 10.220883954484327 10.173026633516226 10.158849952668847 10.145235914831066 10.116233515592263 10.17486500193576 10.183698260755435 10.187162241573107 10.201152990660772 10.175961190827458 10.178058766239436 10.162300631548773 10.184325302765942 10.1765246099642 10.170678603076114 10.173135002606129 10.183214655391167 10.129114139305091 10.125641225596144 10.12554478062747 10.253017818654586 10.275295399969805 10.266397897083962 10.139631084525385 10.12510624582566 10.133891404829775 10.150853434044505 10.212632707646401 10.191457529695635 10.155380070916383 10.24334091105141 10.333365491591426 10.316177729625384 10.18426724494238 10.087066799916444 10.073156175787055 10.061537039035866 10.046442903567831 10.12123998832985 10.15708117091705 10.225709744096388 10.360770521341472 10.335776952763888 10.255848030428405 10.163615117940319 10.112948556955335 10.099993684974434 10.043588625852394 10.054286092171944 10.114023546049271 10.18913546113273 10.409430673588359 10.434174698937584 10.283002617050412 10.186811365361441 10.108895763611885 10.088149084600454 10.06359667754918 10.094364490051259 10.135664609808256 10.145866085889981 10.283462240028397 10.37077631635205 10.334729828350618 10.272846347060414 10.156608316996516 10.164741041916352 10.099220895460823 10.064487805890664 10.081015286252677 10.157935557245688 10.267215692611765 10.374243651247507 10.387581056721576 10.287933867009116 10.196096713134578 10.169844792474827 10.162596424579064 10.039261230401673 10.007441994019844 10.104350945014703 10.268408643234507 10.379496507726483 10.370321298917089 10.28492592257767 10.218767545259212 10.16564732011748 10.003328913690119 9.998946706613612 10.164596180022583 10.246899391696724 10.266613034525243 10.283539398288527 10.302672726415082 10.22095374746469 10.129291896341474 10.098598390525538 10.112147710107639 10.065778683872168 10.106569446240385 10.283520479730239 10.326947443744418 10.386073809424074 10.146697355500512 10.050482166167996 10.053312478823832 10.199880741394571 10.189539792915392 10.138383473611945 10.076196672350278 10.13863406158668 10.377849876848588 10.415087730268969 10.320255576820685 10.07147233793108 10.054333138909017 10.101272094989408 10.15067342393955 10.156626720777664 10.120502744709082 10.323702928847087 10.279884502786254 10.333976069324294 10.173604463669852 10.058673391674999 10.084814882333612 10.207017048162719 10.172190765308146 10.121080181388049 10.09261691226291 10.237918339380721 10.403325766874685 10.365226830421694 10.162737936727753 10.10002012345226 10.089400638740809 10.141520644311873 10.153460404153401 10.146463133098553 10.173392233955125 10.347033207224486 10.345045118127507 10.283693713072037 10.117216155847448 10.053515860252261 10.083875236977194 10.12806109084858 10.154914650795515 10.178533247108838 10.273017161077698 10.401222274554444 10.337291533687216 10.186014078750333 10.109751958171957 10.16603870224326 10.133929424153814 10.10960630833232 10.15711985457661 10.246409461872561 10.31321944992752 10.322043701788935 10.254903597329784 10.15431997887591 10.126951429905837 10.132714240922004 10.192524612842416 10.199871765527405 10.177256670867969 10.232110018928312 10.273047981565304 10.309243537686747 10.206484091247232 10.099007102582304 10.089517467745106 10.180315538473776 10.181060815485452 10.153400291310588 10.180631041987816 10.231470246178576 10.361625415445204 10.376658111807286 10.302364663093963 10.147922517485952 10.023298207576577 10.104108945281865 10.184467262114692 10.183117257264364 10.159174008172137 10.13959271036225 10.283603943696042 10.37313347997409 10.305276086061982 10.174694789648484 10.086942000714648 10.119418265769909 10.176589834117099 10.071908663019682 10.05965027825039 10.123642818713945 10.303314001763962 10.3453541229245 10.374397719952604 10.153104981801595 10.085749901431164 10.095389312749488 10.166732871251739 10.215719071005003 10.082084221092925 10.067655202400113 10.169096442700182 10.334749022279913 10.36214082139129 10.289365771204405 10.077700299917682 10.081889740144051 10.108563303604933 10.142621189189821 10.071174626110372 10.122359319996747 10.134945353062852 10.358038584494224 10.330533622555894 10.263303729422745 10.072313155853044 10.072260890839008 10.10648150063878 10.215647748593323 10.194802878786067 10.140999291893458 10.108216114627721 10.147669151533488 10.326832192631272 10.398450706697098 10.210192535707195 10.108437260289785 10.151038326277884 10.160425824230375 10.151849256906889 10.107687383288091 

